.......................
----------------------------------------------------------------------
Ran 23 tests in 0.003s

OK
Name               Stmts   Miss Branch BrPart  Cover   Missing
--------------------------------------------------------------
Diplomacy.py          76      0     42      3    97%   53->52, 60->59, 98->97
TestDiplomacy.py     180      3      0      0    98%   46-48
--------------------------------------------------------------
TOTAL                256      3     42      3    98%
